(export (version D)
  (design
    (source C:\Users\WolfO\Downloads\kicadProjekt\basicTest\basicTest\basicTest.sch)
    (date "01/12/2019 20:55:48")
    (tool "Eeschema (5.1.5)-2")
    (sheet (number 1) (name /) (tstamps /)
      (title_block
        (title)
        (company)
        (rev)
        (date)
        (source basicTest.sch)
        (comment (number 1) (value ""))
        (comment (number 2) (value ""))
        (comment (number 3) (value ""))
        (comment (number 4) (value "")))))
  (components
    (comp (ref SW1)
      (value SW_Push)
      (footprint Button:SW_SPST_EVQP0)
      (datasheet ~)
      (libsource (lib Switch) (part SW_Push) (description "Push button switch, generic, two pins"))
      (sheetpath (names /) (tstamps /))
      (tstamp 5DE410A6))
    (comp (ref SW2)
      (value SW_Push)
      (footprint Button:SW_SPST_EVQP0)
      (datasheet ~)
      (libsource (lib Switch) (part SW_Push) (description "Push button switch, generic, two pins"))
      (sheetpath (names /) (tstamps /))
      (tstamp 5DE4152F))
    (comp (ref SW3)
      (value SW_Push)
      (footprint Button:SW_SPST_EVQP0)
      (datasheet ~)
      (libsource (lib Switch) (part SW_Push) (description "Push button switch, generic, two pins"))
      (sheetpath (names /) (tstamps /))
      (tstamp 5DE41713))
    (comp (ref SW4)
      (value SW_Push)
      (footprint Button:SW_SPST_EVQP0)
      (datasheet ~)
      (libsource (lib Switch) (part SW_Push) (description "Push button switch, generic, two pins"))
      (sheetpath (names /) (tstamps /))
      (tstamp 5DE41972))
    (comp (ref R5)
      (value 10k)
      (footprint Resistor:R_0805_2012Metric)
      (datasheet ~)
      (libsource (lib Device) (part R) (description Resistor))
      (sheetpath (names /) (tstamps /))
      (tstamp 5DE41ED9))
    (comp (ref R2)
      (value 10k)
      (footprint Resistor:R_0805_2012Metric)
      (datasheet ~)
      (libsource (lib Device) (part R) (description Resistor))
      (sheetpath (names /) (tstamps /))
      (tstamp 5DE4245E))
    (comp (ref R3)
      (value 10k)
      (footprint Resistor:R_0805_2012Metric)
      (datasheet ~)
      (libsource (lib Device) (part R) (description Resistor))
      (sheetpath (names /) (tstamps /))
      (tstamp 5DE42613))
    (comp (ref R4)
      (value 10k)
      (footprint Resistor:R_0805_2012Metric)
      (datasheet ~)
      (libsource (lib Device) (part R) (description Resistor))
      (sheetpath (names /) (tstamps /))
      (tstamp 5DE42823))
    (comp (ref BZ1)
      (value Buzzer)
      (footprint Buzzer:Buzzer_D14mm_H7mm_P10mm)
      (datasheet ~)
      (libsource (lib Device) (part Buzzer) (description "Buzzer, polarized"))
      (sheetpath (names /) (tstamps /))
      (tstamp 5DE42B5B))
    (comp (ref R1)
      (value 220)
      (footprint Resistor:R_0805_2012Metric)
      (datasheet ~)
      (libsource (lib Device) (part R) (description Resistor))
      (sheetpath (names /) (tstamps /))
      (tstamp 5DE44EB2)))
  (libparts
    (libpart (lib Device) (part Buzzer)
      (description "Buzzer, polarized")
      (docs ~)
      (footprints
        (fp *Buzzer*))
      (fields
        (field (name Reference) BZ)
        (field (name Value) Buzzer))
      (pins
        (pin (num 1) (name -) (type passive))
        (pin (num 2) (name +) (type passive))))
    (libpart (lib Device) (part R)
      (description Resistor)
      (docs ~)
      (footprints
        (fp R_*))
      (fields
        (field (name Reference) R)
        (field (name Value) R))
      (pins
        (pin (num 1) (name ~) (type passive))
        (pin (num 2) (name ~) (type passive))))
    (libpart (lib Switch) (part SW_Push)
      (description "Push button switch, generic, two pins")
      (docs ~)
      (fields
        (field (name Reference) SW)
        (field (name Value) SW_Push))
      (pins
        (pin (num 1) (name 1) (type passive))
        (pin (num 2) (name 2) (type passive)))))
  (libraries
    (library (logical Device)
      (uri "C:\\Program Files\\KiCad\\share\\kicad\\library/Device.lib"))
    (library (logical Switch)
      (uri "C:\\Program Files\\KiCad\\share\\kicad\\library/Switch.lib")))
  (nets
    (net (code 1) (name "Net-(BZ1-Pad2)")
      (node (ref R1) (pin 1))
      (node (ref BZ1) (pin 2)))
    (net (code 2) (name A1)
      (node (ref R1) (pin 2)))
    (net (code 3) (name "Net-(R5-Pad2)")
      (node (ref SW1) (pin 2))
      (node (ref R5) (pin 2)))
    (net (code 4) (name "Net-(R2-Pad2)")
      (node (ref R2) (pin 2))
      (node (ref SW2) (pin 2)))
    (net (code 5) (name D1)
      (node (ref SW1) (pin 1)))
    (net (code 6) (name D2)
      (node (ref SW2) (pin 1)))
    (net (code 7) (name D3)
      (node (ref SW3) (pin 1)))
    (net (code 8) (name D4)
      (node (ref SW4) (pin 1)))
    (net (code 9) (name GND)
      (node (ref R3) (pin 1))
      (node (ref BZ1) (pin 1))
      (node (ref R4) (pin 1))
      (node (ref R2) (pin 1))
      (node (ref R5) (pin 1)))
    (net (code 10) (name "Net-(R3-Pad2)")
      (node (ref R3) (pin 2))
      (node (ref SW3) (pin 2)))
    (net (code 11) (name "Net-(R4-Pad2)")
      (node (ref R4) (pin 2))
      (node (ref SW4) (pin 2)))))