EESchema Schematic File Version 4
EELAYER 30 0
EELAYER END
$Descr A4 11693 8268
encoding utf-8
Sheet 1 1
Title ""
Date ""
Rev ""
Comp ""
Comment1 ""
Comment2 ""
Comment3 ""
Comment4 ""
$EndDescr
$Comp
L Switch:SW_Push SW1
U 1 1 5DE410A6
P 4350 1600
F 0 "SW1" H 4350 1885 50  0000 C CNN
F 1 "SW_Push" H 4350 1794 50  0000 C CNN
F 2 "Button:SW_SPST_EVQP0" H 4350 1800 50  0001 C CNN
F 3 "~" H 4350 1800 50  0001 C CNN
	1    4350 1600
	1    0    0    -1  
$EndComp
$Comp
L Switch:SW_Push SW2
U 1 1 5DE4152F
P 4350 2000
F 0 "SW2" H 4350 2285 50  0000 C CNN
F 1 "SW_Push" H 4350 2194 50  0000 C CNN
F 2 "Button:SW_SPST_EVQP0" H 4350 2200 50  0001 C CNN
F 3 "~" H 4350 2200 50  0001 C CNN
	1    4350 2000
	1    0    0    -1  
$EndComp
$Comp
L Switch:SW_Push SW3
U 1 1 5DE41713
P 4350 2400
F 0 "SW3" H 4350 2685 50  0000 C CNN
F 1 "SW_Push" H 4350 2594 50  0000 C CNN
F 2 "Button:SW_SPST_EVQP0" H 4350 2600 50  0001 C CNN
F 3 "~" H 4350 2600 50  0001 C CNN
	1    4350 2400
	1    0    0    -1  
$EndComp
$Comp
L Switch:SW_Push SW4
U 1 1 5DE41972
P 4350 2750
F 0 "SW4" H 4350 3035 50  0000 C CNN
F 1 "SW_Push" H 4350 2944 50  0000 C CNN
F 2 "Button:SW_SPST_EVQP0" H 4350 2950 50  0001 C CNN
F 3 "~" H 4350 2950 50  0001 C CNN
	1    4350 2750
	1    0    0    -1  
$EndComp
$Comp
L Device:R R5
U 1 1 5DE41ED9
P 5050 1400
F 0 "R5" V 4843 1400 50  0000 C CNN
F 1 "10k" V 4934 1400 50  0000 C CNN
F 2 "Resistor:R_0805_2012Metric" V 4980 1400 50  0001 C CNN
F 3 "~" H 5050 1400 50  0001 C CNN
	1    5050 1400
	0    1    1    0   
$EndComp
$Comp
L Device:R R2
U 1 1 5DE4245E
P 5000 2000
F 0 "R2" V 4793 2000 50  0000 C CNN
F 1 "10k" V 4884 2000 50  0000 C CNN
F 2 "Resistor:R_0805_2012Metric" V 4930 2000 50  0001 C CNN
F 3 "~" H 5000 2000 50  0001 C CNN
	1    5000 2000
	0    1    1    0   
$EndComp
$Comp
L Device:R R3
U 1 1 5DE42613
P 5000 2400
F 0 "R3" V 4793 2400 50  0000 C CNN
F 1 "10k" V 4884 2400 50  0000 C CNN
F 2 "Resistor:R_0805_2012Metric" V 4930 2400 50  0001 C CNN
F 3 "~" H 5000 2400 50  0001 C CNN
	1    5000 2400
	0    1    1    0   
$EndComp
$Comp
L Device:R R4
U 1 1 5DE42823
P 5000 2750
F 0 "R4" V 4793 2750 50  0000 C CNN
F 1 "10k" V 4884 2750 50  0000 C CNN
F 2 "Resistor:R_0805_2012Metric" V 4930 2750 50  0001 C CNN
F 3 "~" H 5000 2750 50  0001 C CNN
	1    5000 2750
	0    1    1    0   
$EndComp
$Comp
L Device:Buzzer BZ1
U 1 1 5DE42B5B
P 4600 3750
F 0 "BZ1" V 4558 3902 50  0000 L CNN
F 1 "Buzzer" V 4649 3902 50  0000 L CNN
F 2 "Buzzer:Buzzer_D14mm_H7mm_P10mm" V 4575 3850 50  0001 C CNN
F 3 "~" V 4575 3850 50  0001 C CNN
	1    4600 3750
	0    1    1    0   
$EndComp
Wire Wire Line
	4550 2750 4850 2750
Wire Wire Line
	4550 2400 4850 2400
Wire Wire Line
	5150 2400 5150 2750
Text GLabel 3750 1550 0    50   Input ~ 0
D1
Text GLabel 3750 2000 0    50   Input ~ 0
D2
Text GLabel 3750 2400 0    50   Input ~ 0
D3
Text GLabel 3750 2750 0    50   Input ~ 0
D4
$Comp
L Device:R R1
U 1 1 5DE44EB2
P 4000 3600
F 0 "R1" V 3793 3600 50  0000 C CNN
F 1 "220" V 3884 3600 50  0000 C CNN
F 2 "Resistor:R_0805_2012Metric" V 3930 3600 50  0001 C CNN
F 3 "~" H 4000 3600 50  0001 C CNN
	1    4000 3600
	0    1    1    0   
$EndComp
Wire Wire Line
	4150 3600 4500 3600
Wire Wire Line
	4500 3600 4500 3650
Text GLabel 3450 3600 0    50   Input ~ 0
A1
Wire Wire Line
	3450 3600 3850 3600
Wire Wire Line
	4900 1400 4550 1400
Wire Wire Line
	4550 1400 4550 1600
Wire Wire Line
	4550 2000 4850 2000
Wire Wire Line
	5200 1400 5200 2000
Wire Wire Line
	5150 2000 5200 2000
Wire Wire Line
	5150 2400 5150 2000
Connection ~ 5150 2400
Connection ~ 5150 2000
Wire Wire Line
	4700 3650 5150 3650
Wire Wire Line
	5150 3650 5150 2750
Connection ~ 5150 2750
Wire Wire Line
	4150 1600 3750 1600
Wire Wire Line
	3750 1600 3750 1550
Wire Wire Line
	3750 2000 4150 2000
Wire Wire Line
	4150 2400 3750 2400
Wire Wire Line
	3750 2750 4150 2750
$Comp
L power:GND #PWR01
U 1 1 5DE45E11
P 5500 2000
F 0 "#PWR01" H 5500 1750 50  0001 C CNN
F 1 "GND" H 5505 1827 50  0000 C CNN
F 2 "" H 5500 2000 50  0001 C CNN
F 3 "" H 5500 2000 50  0001 C CNN
	1    5500 2000
	1    0    0    -1  
$EndComp
Wire Wire Line
	5500 2000 5200 2000
Connection ~ 5200 2000
$EndSCHEMATC
